## Interface: 30300
## Title: !known_items
## Version: 3.0
## Notes: Highlights the learned items in the bags and the merchant frames.
## Notes-ruRU: Подсвечивает изученные предметы в сумках и у торговцев.
## Author: Artur91425

core.lua
